<?xml version="1.0" encoding="UTF-8"?>
<!DOCTYPE svg PUBLIC "-//W3C//DTD SVG 1.1//EN" "http://www.w3.org/Graphics/SVG/1.1/DTD/svg11.dtd">
<!-- Creator: CorelDRAW 2018 (64-Bit) -->
<svg xmlns="http://www.w3.org/2000/svg" xml:space="preserve" width="417px" height="295px" version="1.1" style="shape-rendering:geometricPrecision; text-rendering:geometricPrecision; image-rendering:optimizeQuality; fill-rule:evenodd; clip-rule:evenodd"
viewBox="0 0 417 294.85"
 xmlns:xlink="http://www.w3.org/1999/xlink">
 <defs>
  <font id="FontID0" horiz-adv-x="605" font-variant="normal" style="fill-rule:nonzero" font-style="normal" font-weight="700">
	<font-face 
		font-family="Calibri">
		<font-face-src>
			<font-face-name name="Calibri Bold"/>
		</font-face-src>
	</font-face>
   <missing-glyph><path d="M0 0z"/></missing-glyph>
   <glyph unicode=" " horiz-adv-x="225" d=""/>
   <glyph unicode="А" horiz-adv-x="605" d="M586.434 47.8314c3.83674,-11.6692 6.33235,-21.0018 7.33475,-27.8319 1.00239,-6.83701 -0.331826,-12.0011 -3.83674,-15.4991 -3.66392,-3.33209 -9.99627,-5.50279 -19.163,-6.33235 -9.00079,-0.836479 -21.6655,-1.16831 -37.4964,-1.16831 -16.6604,0 -29.6639,0.165913 -38.8306,0.670566 -9.3257,0.49774 -16.3286,1.49322 -21.3268,2.99335 -4.83222,1.50013 -8.16431,3.50492 -10.1691,6.16644 -1.99787,2.50252 -3.66392,6.00053 -4.83222,10.1691l-41.4921 126.986 -238.307 0 -39.833 -123.488c-1.32731,-4.66631 -3.00026,-8.49614 -5.16405,-11.4964 -1.99787,-3.16618 -5.49587,-5.50279 -10.1622,-7.33475 -4.66631,-1.83196 -11.3374,-3.00026 -19.9995,-3.66392 -8.66896,-0.670566 -19.9995,-1.00239 -33.9984,-1.00239 -14.9944,0 -26.6636,0.49774 -35.1598,1.50013 -8.50305,1.00239 -14.3308,3.33209 -17.4969,7.00292 -3.339,3.82983 -4.5004,9.15979 -3.50492,15.9968 1.00239,6.83009 3.50492,15.8309 7.33475,27.3273l194.644 560.773c1.83196,5.49587 4.16857,9.99627 6.83701,13.3284 2.49561,3.50492 6.66418,6.00053 12.326,7.83249 5.83461,1.83887 13.6671,3.00026 23.8362,3.50492 9.99627,0.49774 23.3246,0.663653 39.992,0.663653 19.163,0 34.4961,-0.165913 45.8266,-0.663653 11.5033,-0.504653 20.3313,-1.66604 26.6636,-3.50492 6.33235,-1.83196 10.8327,-4.49348 13.6671,-7.9984 2.66844,-3.66392 5.16405,-8.49614 7.00292,-14.6626l195.307 -560.268zm-289.968 463.949l-0.49774 0 -87.9893 -268.807 177.313 0 -88.8258 268.807z"/>
   <glyph unicode="В" horiz-adv-x="560" d="M525.945 189.646c0,-22.4951 -3.16618,-42.8263 -9.33262,-61.1598 -6.16644,-18.1675 -14.6695,-34.3302 -25.5022,-48.3291 -10.9987,-13.9989 -23.9952,-25.9931 -38.9965,-36.1622 -15.1603,-10.1622 -31.8277,-18.3334 -49.9883,-24.9976 -18.1675,-6.49827 -37.6623,-11.3305 -58.3323,-14.3308 -20.6631,-3.16618 -43.6559,-4.66631 -68.9922,-4.66631l-167.814 0c-10.6668,0 -19.6607,3.16618 -26.9955,9.49853 -7.33475,6.33235 -10.9987,16.6674 -10.9987,30.9981l0 550.935c0,14.3377 3.66392,24.6658 10.9987,30.9981 7.33475,6.33235 16.3286,9.49853 26.9955,9.49853l158.316 0c38.6647,0 71.3288,-3.33209 98.1584,-9.83036 26.8295,-6.49827 49.3246,-16.3286 67.658,-29.498 18.4993,-13.1624 32.4982,-29.8298 42.1627,-49.9952 9.83036,-20.1654 14.6626,-43.8287 14.6626,-71.156 0,-15.3331 -1.99787,-29.6639 -5.8277,-43.1651 -3.83674,-13.4943 -9.67136,-25.8272 -16.9992,-36.8258 -7.50066,-11.1646 -16.6674,-20.8359 -27.666,-29.3321 -10.8327,-8.49614 -23.1656,-15.3331 -37.1646,-20.4972 17.8357,-3.33209 34.4961,-9.00079 49.6633,-17.1651 15.1672,-8.16431 28.3297,-18.6652 39.4943,-31.4959 11.3374,-12.8306 20.1654,-27.9979 26.6636,-45.163 6.49827,-17.331 9.83727,-36.6599 9.83727,-58.1595zm-165.982 266.305c0,12.6647 -2.00478,23.9952 -5.83461,34.1643 -3.82983,9.99627 -9.66444,18.4993 -17.4969,25.1635 -7.83249,6.66418 -17.6628,11.6623 -29.498,15.3331 -11.8351,3.498 -27.666,5.32996 -47.4927,5.32996l-64.6647 0 0 -163.984 71.4948 0c18.4993,0 33.3278,2.1707 44.3265,6.67109 10.9987,4.32757 20.1654,10.3281 27.5001,17.9947 7.33475,7.66657 12.6647,16.6674 16.3286,26.8295 3.50492,10.335 5.33687,21.0018 5.33687,32.4982zm32.996 -270.971c0,14.6626 -2.50252,27.8319 -7.33475,39.4943 -4.83222,11.5033 -12.0011,21.1678 -21.4996,29.0002 -9.33262,7.83249 -21.3268,13.833 -35.9963,18.1606 -14.6626,4.16857 -33.6596,6.33235 -57.1571,6.33235l-75.9952 0 0 -179.974 92.6625 0c17.8288,0 32.8232,1.83196 45.156,5.66179 12.167,3.66392 22.6679,9.33262 31.6687,16.6674 8.82796,7.32783 15.8309,16.3286 20.9949,27.3273 4.99813,10.8327 7.50066,23.3315 7.50066,37.3305z"/>
   <glyph unicode="Д" horiz-adv-x="672" d="M651.928 -148.485c0,-3.16618 -0.836479,-6.00053 -2.50252,-8.16431 -1.50013,-2.3297 -4.49348,-4.16857 -8.66205,-5.6687 -4.33448,-1.50013 -10.0032,-2.66152 -16.9992,-3.498 -7.16883,-0.829566 -16.5014,-1.16831 -27.8319,-1.16831 -10.9987,0 -19.9995,0.338739 -26.9955,1.16831 -6.99601,0.836479 -12.6647,1.99787 -16.9992,3.498 -4.5004,1.50013 -7.50066,3.339 -9.33262,5.50279 -1.83196,2.3297 -2.66152,5.16405 -2.66152,8.33022l0 148.485 -420.956 0 0 -148.485c0,-3.16618 -0.836479,-6.00053 -2.66844,-8.33022 -1.83196,-2.16378 -4.83222,-4.00266 -9.33262,-5.50279 -4.32757,-1.50013 -10.1622,-2.66152 -17.331,-3.498 -7.16192,-0.829566 -16.3286,-1.16831 -27.3273,-1.16831 -11.1646,0 -20.3313,0.338739 -27.5001,1.16831 -7.16192,0.836479 -12.9965,1.99787 -17.331,3.498 -4.33448,1.50013 -7.50066,3.339 -9.00079,5.6687 -1.66604,2.16378 -2.49561,4.99813 -2.49561,8.16431l0 227.142c-0.670566,9.33262 0.995479,16.1696 5.16405,20.1654 4.00266,4.16857 10.1691,6.16644 18.3334,6.16644l29.3321 0c7.83249,10.9987 15.1603,22.4951 22.1632,34.1643 6.99601,11.6623 13.833,25.6612 20.3313,41.658 6.49827,16.1696 12.8306,35.3326 19.3289,57.6617 6.33235,22.1632 12.4988,49.4974 18.6652,81.6569 6.33235,32.1664 12.4988,70.3265 18.8311,114.487 6.33235,43.9946 12.9965,95.8218 19.8335,155.315 1.99787,14.6695 5.66179,25.3363 11.1646,32.0005 5.66179,6.66418 14.1648,9.99627 25.4953,9.99627l322.964 0c11.3305,0 20.3313,-3.33209 26.8295,-9.99627 6.49827,-6.66418 9.83036,-16.8333 9.83036,-30.5004l0 -486.444 53.666 0c8.82796,0 14.9944,-2.3297 18.6652,-6.99601 3.498,-4.83913 5.32996,-11.3374 5.32996,-19.8335l0 -226.644zm-205.642 676.428l-147.317 0c-5.83461,-49.3315 -11.6692,-92.8215 -17.4969,-130.318 -5.6687,-37.4964 -11.5033,-70.4924 -17.1651,-98.6561 -5.83461,-28.3297 -11.5033,-52.6636 -17.5038,-73.1608 -5.8277,-20.4972 -11.8282,-38.16 -17.9947,-53.1614 -6.00053,-14.8285 -12.3329,-27.6591 -18.8311,-38.4919 -6.66418,-10.6668 -13.3353,-20.3313 -20.1654,-29.1662l256.474 0 0 422.954z"/>
   <glyph unicode="Е" horiz-adv-x="487" d="M442.954 50.4929c0,-9.49853 -0.338739,-17.331 -1.16831,-23.8293 -0.836479,-6.33235 -1.99787,-11.4964 -3.66392,-15.3331 -1.67296,-3.99574 -3.67083,-6.83009 -6.16644,-8.66205 -2.33661,-1.83196 -5.17096,-2.66844 -7.9984,-2.66844l-316.97 0c-10.6668,0 -19.6607,3.16618 -26.9955,9.49853 -7.33475,6.33235 -10.9987,16.6674 -10.9987,30.9981l0 550.935c0,14.3377 3.66392,24.6658 10.9987,30.9981 7.33475,6.33235 16.3286,9.49853 26.9955,9.49853l315.47 0c2.82744,0 5.49587,-0.829566 7.83249,-2.49561 2.16378,-1.66604 4.16166,-4.5004 5.8277,-8.50305 1.50013,-4.16166 2.83435,-9.33262 3.67083,-15.665 0.829566,-6.49827 1.16139,-14.4967 1.16139,-24.327 0,-9.1667 -0.331826,-16.8333 -1.16139,-23.3315 -0.836479,-6.33235 -2.00478,-11.5033 -3.67083,-15.3331 -1.66604,-4.00266 -3.66392,-6.83009 -5.8277,-8.66896 -2.33661,-1.83196 -5.00505,-2.66152 -7.83249,-2.66152l-225.476 0 0 -153.981 189.978 0c3.00026,0 5.6687,-0.836479 7.9984,-2.66844 2.50252,-1.83196 4.5004,-4.5004 6.16644,-8.33022 1.66604,-3.67083 2.83435,-8.66896 3.66392,-15.1672 0.836479,-6.33235 1.16831,-13.9989 1.16831,-22.9997 0,-9.49853 -0.331826,-17.331 -1.16831,-23.4975 -0.829566,-6.16644 -1.99787,-11.1646 -3.66392,-14.8285 -1.66604,-3.83674 -3.66392,-6.49827 -6.16644,-7.9984 -2.3297,-1.66604 -4.99813,-2.50252 -7.9984,-2.50252l-189.978 0 0 -177.983 226.976 0c2.99335,0 5.66179,-0.829566 7.9984,-2.66152 2.49561,-1.83196 4.49348,-4.66631 6.16644,-8.66896 1.66604,-3.82983 2.82744,-9.00079 3.66392,-15.3331 0.829566,-6.49827 1.16831,-14.3308 1.16831,-23.8293z"/>
   <glyph unicode="И" horiz-adv-x="651" d="M582.936 16.5014c0,-3.16618 -1.00239,-6.00053 -3.16618,-8.50305 -2.16378,-2.49561 -5.6687,-4.5004 -10.5009,-6.16644 -4.83222,-1.50013 -11.4964,-2.83435 -19.8266,-3.66392 -8.33714,-0.836479 -18.6652,-1.16831 -30.9981,-1.16831 -12.3329,0 -22.6679,0.331826 -30.9981,1.16831 -8.33022,0.829566 -14.8285,2.16378 -19.4948,3.66392 -4.83222,1.66604 -8.17122,3.67083 -10.0032,6.16644 -1.99787,2.50252 -3.00026,5.33687 -3.00026,8.50305l0 333.126c0,12.6647 0.165913,25.1635 0.504653,37.3305 0.331826,12.3329 0.829566,23.1656 1.50013,32.4982l-1.00239 0c-2.66844,-4.5004 -5.6687,-9.83727 -9.33262,-15.8309 -3.66392,-6.00053 -7.50066,-12.3329 -11.4964,-19.004 -4.16857,-6.66418 -8.50305,-13.4943 -13.0034,-20.4972 -4.66631,-6.99601 -9.1667,-13.8261 -13.6602,-20.3313l-219.476 -327.796c-2.66844,-3.498 -5.33687,-6.66418 -8.00531,-9.1667 -2.82744,-2.66152 -6.33235,-4.66631 -10.8258,-6.16644 -4.33448,-1.50013 -9.67136,-2.49561 -16.0037,-2.99335 -6.33235,-0.504653 -14.6626,-0.670566 -24.6588,-0.670566 -12.6647,0 -22.9997,0.331826 -30.6663,1.16831 -7.83249,0.829566 -13.9989,2.16378 -18.3334,3.66392 -4.5004,1.66604 -7.49375,3.83674 -8.99388,6.33235 -1.66604,2.66844 -2.50252,5.83461 -2.50252,9.33262l0 597.937c0,3.16618 1.00239,6.00053 3.16618,8.49614 2.16378,2.50252 5.6687,4.5004 10.6668,6.16644 4.99813,1.50013 11.6623,2.83435 19.8335,3.66392 7.9984,0.836479 18.3265,1.16831 30.6594,1.16831 12.4988,0 22.9997,-0.331826 30.9981,-1.16831 8.16431,-0.829566 14.6626,-2.16378 19.4948,-3.66392 4.83222,-1.66604 8.33714,-3.66392 10.1691,-6.16644 1.99787,-2.49561 3.00026,-5.32996 3.00026,-8.49614l0 -335.131c0,-10.335 -0.165913,-21.4996 -0.504653,-33.1619 -0.331826,-11.8351 -0.829566,-23.1656 -1.50013,-34.1643l1.00239 0c5.6687,9.66444 12.6647,21.4996 21.1678,35.1598 8.49614,13.6671 17.331,27.0024 26.3249,39.9989l219.814 327.796c2.3297,3.16618 4.66631,6.00053 7.32783,8.49614 2.66844,2.50252 6.16644,4.5004 10.5009,6.16644 4.33448,1.50013 9.83036,2.66844 16.3286,3.33209 6.50518,0.670566 14.8354,1.00239 24.9976,1.00239 12.3329,0 22.3361,-0.331826 29.9957,-1.16831 7.66657,-0.829566 13.6671,-2.16378 18.3334,-3.66392 4.5004,-1.66604 7.66657,-3.66392 9.49853,-6.16644 1.83196,-2.49561 2.66844,-5.49587 2.66844,-9.00079l0 -598.428z"/>
   <glyph unicode="Л" horiz-adv-x="628" d="M559.97 16.4983c0,-3.16453 -1.00178,-5.99901 -3.00145,-8.49957 -1.83271,-2.50056 -5.33116,-4.50023 -10.1653,-6.16597 -4.83415,-1.49878 -11.501,-2.83448 -19.8336,-3.66542 -8.33261,-0.834814 -18.6649,-1.16874 -30.9968,-1.16874 -12.6659,0 -23.1651,0.333926 -31.3308,1.16874 -8.00256,0.830931 -14.6655,2.16663 -19.4997,3.66542 -4.83415,1.66574 -8.33261,3.66542 -10.1653,6.16597 -1.99967,2.50056 -3.00145,5.33504 -3.00145,8.49957l0 510.471 -134.991 0c-9.16742,-74.6595 -18.4979,-139.825 -27.9993,-195.653 -9.33438,-55.6646 -19.4997,-103.498 -30.3329,-143.161 -10.6662,-39.8303 -22.6642,-72.4968 -35.4971,-97.8285 -12.8328,-25.4987 -27.6653,-45.6624 -43.9966,-60.4949 -16.4983,-14.8325 -35.167,-24.9978 -55.9985,-30.4998 -20.6646,-5.49812 -44.3306,-8.33261 -70.6602,-8.33261 -5.00112,0 -9.16742,0.667851 -12.8328,1.99967 -3.50234,1.16874 -6.33294,3.6693 -8.49957,7.33471 -2.16663,3.49845 -3.6693,8.49957 -4.66719,14.9995 -1.00178,6.4999 -1.49878,14.8325 -1.49878,24.8309 0,13.9977 0.330043,25.3317 0.997894,33.9983 0.667851,8.49957 1.83271,15.1664 3.33537,19.8336 1.66574,4.83027 3.83238,7.99868 6.4999,9.49746 2.49668,1.66574 5.66509,2.50056 9.3305,2.50056 9.99835,0 19.8336,1.99967 28.9972,6.16597 9.33438,3.99934 18.3348,11.998 27.0014,24.1669 8.66653,11.998 16.9991,28.9972 24.9978,50.8305 7.99868,21.8294 15.8304,50.4965 23.499,86.3275 7.66476,35.664 15.3334,79.1636 22.9982,130.491 7.66476,51.3313 15.5004,112.327 23.3321,182.991 1.99967,16.6652 5.83205,28.3332 11.6641,34.9962 5.83593,6.66686 14.5025,10.0022 25.8326,10.0022l309.817 0c11.8311,0 20.8315,-3.33537 27.1645,-10.0022 6.33294,-6.66298 9.50135,-16.8322 9.50135,-30.4959l0 -574.969z"/>
   <glyph unicode="М" horiz-adv-x="873" d="M804.955 17.5c0,-3.16841 -0.834814,-6.16597 -2.66752,-8.8335 -1.83271,-2.50056 -5.1642,-4.66719 -9.83139,-6.33294 -4.66719,-1.49878 -11.0001,-2.83448 -18.8318,-3.83238 -7.83172,-1.00178 -17.834,-1.50266 -29.832,-1.50266 -11.8311,0 -21.6663,0.500888 -29.4981,1.50266 -7.83172,0.997894 -14.0016,2.3336 -18.6649,3.83238 -4.50023,1.66574 -7.8356,3.83238 -9.66831,6.33294 -1.99967,2.66752 -2.99756,5.66509 -2.99756,8.8335l0 514.471 -1.00178 0 -182.49 -513.97c-1.33182,-4.17019 -3.33149,-7.66864 -6.33294,-10.5031 -2.99756,-2.8306 -6.83382,-4.99723 -11.998,-6.66298 -5.00112,-1.50266 -11.501,-2.66752 -19.1658,-3.16841 -7.83172,-0.500888 -17.3331,-0.667851 -28.3332,-0.667851 -11.1632,0 -20.4976,0.333926 -28.3293,1.16874 -7.8356,0.830931 -14.3355,2.16663 -19.3327,3.99934 -5.00112,1.83271 -9.00046,3.99934 -12.0019,6.4999 -2.8306,2.66752 -4.83027,5.83205 -5.83205,9.33438l-176.157 513.97 -0.997894 0 0 -514.471c0,-3.16841 -0.834814,-6.16597 -2.66752,-8.8335 -1.83271,-2.50056 -5.1642,-4.66719 -9.99835,-6.33294 -5.00112,-1.49878 -11.3341,-2.83448 -18.9988,-3.83238 -7.66864,-1.00178 -17.5,-1.50266 -29.4981,-1.50266 -11.8349,0 -21.6663,0.500888 -29.4981,1.50266 -7.8356,0.997894 -14.1685,2.3336 -18.8318,3.83238 -4.66719,1.66574 -8.00256,3.83238 -9.83527,6.33294 -1.83271,2.66752 -2.66752,5.66509 -2.66752,8.8335l0 563.134c0,16.6652 4.33327,29.3311 13.1668,38.1646 8.8335,8.8335 20.5015,13.1668 35.334,13.1668l83.9939 0c14.9995,0 27.9993,-1.16874 38.6655,-3.6693 10.8332,-2.49668 20.1637,-6.4999 27.9954,-12.165 7.66864,-5.66509 14.3355,-13.1668 19.4997,-22.4973 5.16808,-9.33438 9.83527,-20.8315 13.6676,-34.4992l136.16 -376.478 1.99967 0 140.99 375.643c4.1663,13.6676 8.8335,25.1687 13.8307,34.6661 5.16808,9.33438 11.0001,16.9991 17.667,22.8312 6.66686,5.83593 14.6655,10.0022 23.666,12.4989 9.16742,2.50056 19.8336,3.6693 31.8316,3.6693l86.6614 0c8.8335,0 16.3313,-1.16874 22.6642,-3.50234 6.33294,-2.16663 11.668,-5.49812 15.6673,-9.99835 4.1663,-4.33327 7.16775,-9.66443 9.33438,-15.9974 2.16663,-6.33294 3.16453,-13.6676 3.16453,-21.8333l0 -563.134z"/>
   <glyph unicode="О" horiz-adv-x="676" d="M636.927 323.296c0,-52.3249 -6.49827,-99.1539 -19.4948,-140.48 -12.9965,-41.3331 -32.3323,-76.4929 -58.1595,-105.154 -25.6682,-28.8343 -57.4958,-50.8317 -95.324,-65.9989 -37.9941,-15.1603 -81.8229,-22.661 -131.652,-22.661 -49.1587,0 -91.992,6.49827 -128.486,19.3289 -36.6599,12.8375 -67.1603,32.3323 -91.6532,58.8301 -24.3339,26.3318 -42.6673,59.8255 -54.8274,100.488 -12.167,40.6626 -18.3334,88.8258 -18.3334,144.483 0,50.9976 6.49827,96.9901 19.4948,137.819 13.0034,40.8285 32.3323,75.4905 58.1595,104.159 25.6682,28.6615 57.4958,50.6588 95.324,65.8261 38.001,15.3262 81.9957,22.9928 132.157,22.9928 47.8245,0 89.9872,-6.33235 126.647,-18.9971 36.5009,-12.6647 67.1603,-32.1595 91.6601,-58.6572 24.6658,-26.3318 43.1582,-59.4937 55.657,-99.6585 12.4988,-40.3307 18.8311,-87.6575 18.8311,-142.319zm-134.984 -6.49827c0,33.1619 -2.66152,63.3304 -7.83249,90.4918 -5.16405,27.1614 -13.9989,50.4929 -26.4977,69.8218 -12.4988,19.3358 -29.1592,34.3302 -49.9952,44.997 -20.829,10.5009 -46.8221,15.8309 -77.9861,15.8309 -31.4959,0 -57.8277,-6.00053 -78.8295,-17.8288 -21.1608,-11.8351 -38.3259,-27.8319 -51.3225,-47.6655 -13.0034,-19.8266 -22.1632,-42.9923 -27.5001,-69.49 -5.32996,-26.6636 -7.9984,-54.6615 -7.9984,-84.3254 0,-34.4961 2.66844,-65.4873 7.83249,-92.9874 5.16405,-27.5001 13.9989,-50.9976 26.3318,-70.6583 12.3329,-19.5017 28.8274,-34.3302 49.6564,-44.6652 20.8359,-10.1622 46.9949,-15.3262 78.4977,-15.3262 31.4959,0 57.8207,5.8277 78.8226,17.6628 21.1608,11.6623 38.3259,27.666 51.3294,47.8245 12.9965,20.1654 22.1632,43.6628 27.4932,70.4924 5.33687,26.8295 7.9984,55.498 7.9984,85.8255z"/>
   <glyph unicode="Р" horiz-adv-x="532" d="M501.943 439.953c0,-35.6644 -5.49587,-66.9944 -16.6604,-94.3217 -10.9987,-27.5001 -27.1683,-50.4998 -48.495,-69.1651 -21.1678,-18.8311 -47.1608,-32.996 -77.993,-42.8263 -30.8322,-9.83036 -67.1603,-14.6626 -108.991,-14.6626l-52.8226 0 0 -201.481c0,-3.33209 -1.00239,-6.16644 -3.16618,-8.82796 -2.1707,-2.50252 -5.6687,-4.66631 -10.5009,-6.33927 -4.83222,-1.66604 -11.3305,-2.82744 -19.4948,-3.82983 -8.00531,-1.00239 -18.4993,-1.50013 -30.9981,-1.50013 -12.3329,0 -22.6679,0.49774 -30.9981,1.50013 -8.33022,1.00239 -14.8285,2.33661 -19.6676,3.82983 -4.83222,1.67296 -8.33022,3.83674 -10.1622,6.33927 -1.99787,2.66152 -3.00026,5.66179 -3.00026,8.82796l0 568.439c0,15.3331 4.00266,26.8295 12.0011,34.4961 7.9984,7.66657 18.4924,11.4964 31.4959,11.4964l148.983 0c14.9944,0 29.3321,-0.49774 42.8263,-1.66604 13.5012,-1.16831 29.6639,-3.66392 48.661,-7.33475 18.8311,-3.82983 37.9941,-10.6599 57.3299,-20.829 19.3289,-9.99627 35.9963,-22.8269 49.6564,-38.3259 13.6671,-15.4991 24.168,-33.5006 31.3299,-54.3297 7.16883,-20.6631 10.6668,-43.8287 10.6668,-69.49zm-133.982 -9.33262c0,22.1632 -4.00266,40.4966 -11.8351,54.8274 -7.83249,14.3308 -17.4969,24.9976 -28.9933,31.8277 -11.5033,6.83009 -23.4975,11.1646 -35.9963,12.9965 -12.6647,1.83887 -25.6682,2.66844 -39.1624,2.66844l-54.9933 0 0 -214.975 57.9936 0c20.6631,0 37.8282,2.83435 51.8271,8.33022 13.833,5.50279 25.3294,13.3353 34.1643,23.3315 8.82796,9.83036 15.4921,21.8314 20.1585,35.6644 4.5004,13.833 6.83701,28.9933 6.83701,45.3289z"/>
   <glyph unicode="Т" horiz-adv-x="495" d="M488.972 579.303c0,-9.50135 -0.333926,-17.5 -1.16486,-24.3339 -0.834814,-6.66686 -1.99967,-11.998 -3.6693,-15.9974 -1.66574,-4.1663 -3.66542,-7.16775 -6.16597,-9.00046 -2.3336,-1.99967 -5.1642,-3.00145 -7.99868,-3.00145l-157.989 0 0 -509.469c0,-3.16841 -1.00178,-6.16597 -3.16841,-8.8335 -2.16663,-2.50056 -5.66509,-4.66719 -10.4992,-6.33294 -4.83415,-1.49878 -11.4971,-2.83448 -19.8297,-3.83238 -8.33649,-1.00178 -18.6688,-1.50266 -31.0007,-1.50266 -12.3319,0 -22.6642,0.500888 -30.9968,1.50266 -8.33261,0.997894 -14.9995,2.3336 -19.8336,3.83238 -4.83415,1.66574 -8.33261,3.83238 -10.4992,6.33294 -2.16663,2.66752 -3.16453,5.66509 -3.16453,8.8335l0 509.469 -157.993 0c-3.16453,0 -5.99901,1.00178 -8.33261,3.00145 -2.16663,1.83271 -4.1663,4.83415 -5.83205,9.00046 -1.49878,3.99934 -2.83448,9.3305 -3.66542,15.9974 -0.834814,6.83382 -1.16874,14.8325 -1.16874,24.3339 0,9.66443 0.333926,17.997 1.16874,24.8309 0.830931,6.83382 2.16663,12.3319 3.66542,16.3313 1.66574,4.1663 3.66542,7.00079 5.83205,8.8335 2.3336,1.83271 5.16808,2.66752 8.33261,2.66752l444.975 0c2.83448,0 5.50201,-0.834814 7.99868,-2.66752 2.50056,-1.83271 4.50023,-4.66719 6.16597,-8.8335 1.66963,-3.99934 2.83448,-9.49746 3.6693,-16.3313 0.830931,-6.83382 1.16486,-15.1664 1.16486,-24.8309z"/>
   <glyph unicode="У" horiz-adv-x="547" d="M369.129 174.478c-14.3377,-36.3281 -28.3366,-66.4897 -42.1627,-90.1531 -13.833,-23.8293 -28.6684,-42.6604 -44.3334,-56.4934 -15.8309,-13.833 -32.996,-23.3315 -51.6612,-28.8343 -18.6652,-5.32996 -39.992,-7.9984 -63.9872,-7.9984 -8.83488,0 -17.3379,0.504653 -25.8341,1.66604 -8.49614,1.16831 -16.3286,2.66844 -23.8293,4.66631 -7.50066,2.00478 -13.9989,4.33448 -19.5017,6.83701 -5.49587,2.66152 -9.49853,5.16405 -12.1601,7.32783 -2.66844,2.33661 -4.66631,4.83222 -6.16644,7.66657 -1.33422,2.66844 -2.66844,6.33235 -3.50492,10.9987 -0.995479,4.5004 -1.83196,10.335 -2.3297,17.331 -0.49774,7.00292 -0.663653,15.8309 -0.663653,26.1659 0,18.9971 1.32731,32.3323 4.16166,40.3307 2.66844,7.9984 7.00292,11.9941 12.8306,11.9941 3.00026,0 6.16644,-1.16139 9.67136,-3.498 3.66392,-2.16378 7.9984,-4.66631 12.9965,-7.16192 4.99813,-2.66844 10.8327,-5.00505 17.4969,-7.16883 6.66418,-2.16378 14.4967,-3.16618 23.4975,-3.16618 6.83009,0 13.1624,0.663653 18.9971,2.16378 5.83461,1.50013 11.3305,4.33448 16.5014,8.50305 5.16405,4.16166 10.3281,10.1622 15.4991,17.8288 5.16405,7.50066 10.8258,17.4969 16.6604,29.8298l-207.806 423.286c-4.5004,10.1691 -7.16883,18.3334 -7.9984,24.6658 -0.836479,6.33235 0.663653,11.3305 4.49348,14.8285 4.00266,3.67083 10.6668,6.00053 19.8335,7.16883 9.33262,1.16831 21.8314,1.66604 37.4964,1.66604 15.3331,0 27.5001,-0.331826 36.6599,-1.00239 9.1667,-0.663653 16.5014,-1.99787 21.9973,-4.16166 5.50279,-1.99787 9.83727,-5.16405 12.6647,-9.1667 3.00026,-4.16857 5.83461,-9.49853 8.83488,-15.9968l88.4939 -191.312c9.83036,-20.4972 18.9971,-40.9944 27.6591,-61.3257 8.83488,-20.3313 17.331,-40.8285 25.3294,-61.6644l1.50013 0c6.49827,21.8314 13.5012,42.9992 20.8359,63.6623 7.32783,20.6631 15.3262,42.3286 24.1611,65.1555l72.9949 194.312c1.66604,4.5004 3.66392,8.17122 6.33235,10.9987 2.66152,2.83435 6.49827,5.00505 11.6623,6.67109 5.16405,1.50013 12.3329,2.66152 21.4996,3.16618 9.00079,0.49774 20.829,0.663653 35.4916,0.663653 14.8354,0 26.8365,-0.49774 35.4985,-1.50013 8.83488,-0.995479 15.1672,-2.83435 18.9971,-5.49587 4.00266,-2.83435 5.6687,-6.67109 5.33687,-11.5033 -0.338739,-4.99813 -1.83887,-11.3305 -4.83222,-19.163l-169.314 -422.788z"/>
   <glyph unicode="Ө" horiz-adv-x="676" d="M636.963 325.313c0,-52.4962 -6.4999,-99.3273 -19.4958,-140.823 -12.9998,-41.4961 -32.3325,-76.6631 -57.8312,-105.66 -25.4987,-29.001 -57.3304,-51.1644 -95.161,-66.6647 -37.9976,-15.4965 -81.9981,-23.1651 -132.161,-23.1651 -49.1647,0 -91.9926,6.33294 -128.491,18.9988 -36.6658,12.6659 -67.1656,32.1656 -91.6626,58.6661 -24.33,26.3296 -42.6648,59.6601 -54.8298,100.158 -12.165,40.4982 -18.331,88.8281 -18.331,144.827 0,50.6635 6.4999,96.4928 19.4958,137.492 12.9998,40.9991 32.3325,75.8283 57.8312,104.495 25.4987,28.6632 57.3304,50.6635 95.4949,66.16 37.9976,15.5004 82.1612,23.169 132.328,23.169 47.4951,0 89.492,-6.16986 125.824,-18.5018 36.4988,-12.3319 67.1617,-31.6647 91.8295,-57.6643 24.6639,-25.9957 43.4957,-58.9961 56.1616,-98.9934 12.6659,-39.9973 18.9988,-87.4963 18.9988,-142.493zm-455.641 -100.659c4.00322,-20.4976 9.83527,-38.6655 17.667,-54.8298 7.83172,-16.0012 17.834,-29.665 30.1659,-40.6651 12.4989,-11.1671 27.4984,-19.4997 45.3285,-25.3317 17.667,-5.83205 38.3315,-8.8335 61.8306,-8.8335 23.3321,0 43.9966,3.33537 61.8306,10.1653 17.667,6.83382 33.1635,16.3352 46.1633,28.3332 12.9998,11.998 23.499,26.4966 31.6647,43.1657 8.16564,16.6652 14.1685,35.1631 18.1679,55.3268 2.50056,13.3337 4.50023,26.6674 5.83205,40.0012l-324.983 0c0.667851,-8.49957 1.50266,-16.5021 2.50056,-24.3339 1.00178,-7.83172 2.16663,-15.5004 3.83238,-22.9982zm313.319 183.488c-4.00322,20.3345 -9.83527,38.3315 -17.834,54.3328 -7.99868,15.9974 -18.331,29.665 -30.8338,40.9952 -12.4989,11.1671 -27.6615,19.8336 -45.1615,25.6657 -17.667,5.83205 -37.9976,8.8335 -61.1627,8.8335 -23.499,0 -44.1636,-3.49845 -61.9975,-10.3323 -18.0009,-6.83382 -33.3304,-16.3313 -46.1633,-28.3332 -12.9998,-12.165 -23.499,-26.4966 -31.8316,-43.1618 -8.33261,-16.6652 -14.3316,-34.6661 -18.3348,-54.3328 -0.997894,-5.1642 -1.83271,-10.3323 -2.66364,-15.3295 -0.834814,-5.16808 -1.50266,-10.3362 -2.16663,-15.5004l323.481 0c-0.667851,6.4999 -1.33182,12.8328 -2.16663,19.1658 -0.834814,6.16597 -1.83271,12.165 -3.16453,17.997z"/>
  </font>
  <style type="text/css">
   <![CDATA[
    @font-face { font-family:"Calibri";font-variant:normal;font-style:normal;font-weight:bold;src:url("#FontID0") format(svg)}
    .str1 {stroke:#D2D3D5;stroke-width:0.11;stroke-miterlimit:22.9256}
    .str0 {stroke:#A9ABAE;stroke-width:0.11;stroke-miterlimit:22.9256}
    .fil4 {fill:#727376}
    .fil3 {fill:#FEFEFE;fill-rule:nonzero}
    .fil1 {fill:#E6E7E8;fill-rule:nonzero}
    .fil0 {fill:#A9ABAE;fill-rule:nonzero}
    .fil2 {fill:#EE403D;fill-rule:nonzero}
    .fnt1 {font-weight:bold;font-size:20.31px;font-family:'Calibri'}
    .fnt0 {font-weight:bold;font-size:36.16px;font-family:'Calibri'}
   ]]>
  </style>
 </defs>
 <g id="Слой_x0020_1">
  <metadata id="CorelCorpID_0Corel-Layer"/>
  <path class="fil0 str0" d="M144.63 204.63c-12.29,9.91 -27.91,15.84 -44.93,15.84 -39.59,0 -71.68,-32.09 -71.68,-71.68 0,-39.59 32.09,-71.68 71.68,-71.68 17.02,0 32.64,5.93 44.93,15.84l217.84 0c15.48,0 28.03,12.55 28.03,28.02l0 55.64c0,15.48 -12.55,28.02 -28.03,28.02l-217.84 0z"/>
  <path class="fil1 str1" d="M143.12 201.9c-12.3,9.9 -27.92,15.84 -44.94,15.84 -39.58,0 -71.68,-32.1 -71.68,-71.68 0,-39.59 32.1,-71.68 71.68,-71.68 17.02,0 32.64,5.93 44.94,15.84l217.83 0c15.48,0 28.03,12.54 28.03,28.02l0 55.63c0,15.48 -12.55,28.03 -28.03,28.03l-217.83 0z"/>
  <path class="fil2" d="M157.65 146.22c0,32.58 -26.41,58.98 -58.98,58.98 -32.57,0 -58.98,-26.4 -58.98,-58.98 0,-32.57 26.41,-58.97 58.98,-58.97 32.57,0 58.98,26.4 58.98,58.97z"/>
  <path class="fil3" d="M107.56 147.14l-14.65 8.03c-0.64,0.35 -1.21,-0.12 -1.21,-0.84l0 -16.49c0,-0.73 0.59,-1.19 1.23,-0.83l14.75 8.46c0.65,0.37 0.54,1.31 -0.12,1.67zm23.17 -9.48c0,-7.82 -6.34,-14.16 -14.16,-14.16l-36.73 0c-7.82,0 -14.16,6.34 -14.16,14.16l0 17.22c0,7.82 6.34,14.16 14.16,14.16l36.73 0c7.82,0 14.16,-6.34 14.16,-14.16l0 -17.22z"/>
  <text x="199.01" y="139.78"  class="fil4 fnt0">Т</text>
  <text x="218.88" y="139.78"  class="fil4 fnt0">Ө</text>
  <text x="245.16" y="139.78"  class="fil4 fnt0">Л</text>
  <text x="270.67" y="139.78"  class="fil4 fnt0">Ө</text>
  <text x="297.91" y="139.78"  class="fil4 fnt0">М</text>
  <text x="214.06" y="163.31"  class="fil4 fnt1">Т</text>
  <text x="225.89" y="163.31"  class="fil4 fnt1">У</text>
  <text x="238.56" y="163.31"  class="fil4 fnt1">У</text>
  <text x="251.24" y="163.31"  class="fil4 fnt1">Р</text>
  <text x="262.48" y="163.31"  class="fil4 fnt1">А</text>
  <text x="276.34" y="163.31"  class="fil4 fnt1">Л</text>
  <text x="290.67" y="163.31"  class="fil4 fnt1">У</text>
  <text x="303.35" y="163.31"  class="fil4 fnt1">У</text>
  <text x="230.38" y="183.39"  class="fil4 fnt1">В</text>
  <text x="243.33" y="183.39"  class="fil4 fnt1">И</text>
  <text x="258.13" y="183.39"  class="fil4 fnt1">Д</text>
  <text x="273.35" y="183.39"  class="fil4 fnt1">Е</text>
  <text x="284.4" y="183.39"  class="fil4 fnt1">О</text>
  <text x="298.14" y="183.39"  class="fil4 fnt0"> </text>
 </g>
</svg>
